ONS LAD 2019 data cleaning
…
}

print(
  wellbeing_time[wellbeing_time$areaCode %in%
               combs_dup$areaCode[combs_dup$duplicat==T],c(1,2,3,4)])

## # A tibble: 48 x 4
##     year areaCode  areaName                  Value_Anxiety
##    <dbl> <chr>     <chr>                             <dbl>
##  1  2012 E07000246 Somerset West and Taunton          3.05
##  2  2013 E07000246 Somerset West and Taunton          3.16
##  3  2014 E07000246 Somerset West and Taunton          2.64
##  4  2015 E07000246 Somerset West and Taunton          2.76
##  5  2016 E07000246 Somerset West and Taunton          2.74
##  6  2017 E07000246 Somerset West and Taunton          2.7 
##  7  2018 E07000246 Somerset West and Taunton          2.56
##  8  2019 E07000246 Somerset West and Taunton          2.66
##  9  2012 E07000246 Somerset West and Taunton          3.05
## 10  2013 E07000246 Somerset West and Taunton          3.16
## #  with 38 more rows
…
}

print(
  work_time[work_time$areaCode %in%
                   combs_dup$areaCode[combs_dup$duplicat==T],c(1,2,3,4)])

## # A tibble: 21 x 4
##     year areaCode  areaName                  Pay_Mean_All_All
##    <int> <chr>     <chr>                                <dbl>
##  1  2016 E07000246 Somerset West and Taunton             15.0
##  2  2017 E07000246 Somerset West and Taunton             15.0
##  3  2018 E07000246 Somerset West and Taunton             15.6
##  4  2016 E07000246 Somerset West and Taunton             15.0
##  5  2017 E07000246 Somerset West and Taunton             15.0
##  6  2018 E07000246 Somerset West and Taunton             15.6
##  7  2016 E07000245 West Suffolk                          13.4
##  8  2017 E07000245 West Suffolk                          13.8
##  9  2018 E07000245 West Suffolk                          14.0
## 10  2016 E07000245 West Suffolk                          13.4
## #  with 11 more rows
…
